# Elapsed time   CPU (%)     Real (MB)   Virtual (MB)
       0.000        0.000        5.051      836.438
       0.031        0.000        5.051      836.438
       0.061        0.000        5.309      836.438
       0.091        0.000        5.566      836.438
       0.121        0.000        5.824      836.438
       0.151        0.000        6.082      836.438
       0.180        0.000        6.340      836.438
       0.210        0.000        6.598      836.438
       0.240        0.000        6.598      836.438
       0.270        0.000        6.598      836.438
       0.299        0.000        6.598      836.438
       0.329        0.000        6.598      836.438
       0.359        0.000        6.598      836.438
       0.389        0.000        6.598      836.438
       0.419        0.000        6.598      836.438
       0.449        0.000        6.855      836.438
       0.479        0.000        6.855      836.438
       0.508        0.000        7.113      836.438
       0.538        0.000        7.113      836.438
       0.568        0.000        7.113      836.438
       0.598        0.000        7.113      836.438
       0.628        0.000        7.113      836.438
       0.658        0.000        7.113      836.438
       0.688        0.000        7.113      836.438
       0.717        0.000        7.113      836.438
       0.747        0.000        7.113      836.438
       0.777        0.000        7.113      836.438
       0.807        0.000        7.113      836.438
       0.837        0.000        7.113      836.438
       0.867        0.000        7.113      836.438
       0.897        0.000        7.113      836.438
       0.927        0.000        7.113      836.438
       0.957        0.000        7.113      836.438
       0.987        0.000        7.113      836.438
       1.017        0.000        7.113      836.438
       1.046        0.000        7.113      836.438
       1.076        0.000        7.113      836.438
       1.107        0.000        7.113      836.438
       1.137        0.000        7.113      836.438
       1.167        0.000        7.113      836.438
       1.197        0.000        7.113      836.438
       1.227        0.000        7.113      836.438
       1.257        0.000        7.113      836.438
       1.287        0.000        7.113      836.438
       1.317        0.000        7.113      836.438
       1.346        0.000        7.113      836.438
       1.377        0.000        7.113      836.438
       1.406        0.000        7.113      836.438
       1.436        0.000        7.113      836.438
       1.466        0.000        7.113      836.438
       1.496        0.000        7.113      836.438
       1.526        0.000        7.113      836.438
       1.556        0.000        7.113      836.438
       1.586        0.000        7.113      836.438
       1.617        0.000        7.113      836.438
       1.648        0.000        7.113      836.438
       1.678        0.000        7.113      836.438
       1.709        0.000        7.113      836.438
       1.738        0.000        7.113      836.438
       1.768        0.000        7.113      836.438
       1.798        0.000        7.113      836.438
       1.828        0.000        7.113      836.438
       1.858        0.000        7.113      836.438
       1.887        0.000        7.113      836.438
       1.917        0.000        7.113      836.438
       1.947        0.000        7.113      836.438
       1.977        0.000        7.113      836.438
       2.007        0.000        7.113      836.438
       2.038        0.000        7.113      836.438
       2.068        0.000        7.113      836.438
       2.098        0.000        7.113      836.438
       2.128        0.000        7.113      836.438
       2.158        0.000        7.113      836.438
       2.188        0.000        7.113      836.438
       2.218        0.000        7.113      836.438
       2.248        0.000        7.113      836.438
       2.278        0.000        7.113      836.438
       2.308        0.000        7.113      836.438
       2.338        0.000        7.113      836.438
       2.368        0.000        7.113      836.438
       2.398        0.000        7.113      836.438
       2.428        0.000        7.113      836.438
       2.458        0.000        7.113      836.438
       2.488        0.000        7.113      836.438
       2.518        0.000        7.113      836.438
       2.547        0.000        7.113      836.438
       2.577        0.000        7.113      836.438
       2.607        0.000        7.113      836.438
       2.637        0.000        7.113      836.438
       2.667        0.000        7.113      836.438
       2.697        0.000        7.113      836.438
       2.727        0.000        7.113      836.438
       2.757        0.000        7.113      836.438
       2.787        0.000        7.113      836.438
       2.817        0.000        7.113      836.438
       2.847        0.000        7.113      836.438
       2.877        0.000        7.113      836.438
       2.908        0.000        7.113      836.438
       2.938        0.000        7.113      836.438
       2.968        0.000        7.113      836.438
       2.998        0.000        7.113      836.438
       3.028        0.000        7.113      836.438
       3.058        0.000        7.113      836.438
       3.088        0.000        7.113      836.438
       3.119        0.000        7.113      836.438
       3.149        0.000        7.113      836.438
       3.178        0.000        7.113      836.438
       3.208        0.000        7.113      836.438
       3.239        0.000        7.113      836.438
       3.269        0.000        7.113      836.438
       3.299        0.000        7.113      836.438
       3.329        0.000        7.113      836.438
       3.359        0.000        7.113      836.438
       3.389        0.000        7.113      836.438
       3.419        0.000        7.113      836.438
       3.449        0.000        7.113      836.438
       3.479        0.000        7.113      836.438
       3.509        0.000        7.113      836.438
       3.539        0.000        7.113      836.438
       3.570        0.000        7.113      836.438
       3.600        0.000        7.113      836.438
       3.630        0.000        7.113      836.438
       3.660        0.000        7.113      836.438
       3.690        0.000        7.113      836.438
       3.720        0.000        7.113      836.438
       3.750        0.000        7.113      836.438
       3.779        0.000        7.113      836.438
       3.809        0.000        7.113      836.438
       3.839        0.000        7.113      836.438
       3.869        0.000        7.113      836.438
       3.899        0.000        7.113      836.438
       3.929        0.000        7.113      836.438
       3.959        0.000        7.113      836.438
       3.989        0.000        7.113      836.438
       4.019        0.000        7.113      836.438
       4.049        0.000        7.113      836.438
       4.080        0.000        7.113      836.438
       4.110        0.000        7.113      836.438
       4.140        0.000        7.113      836.438
       4.170        0.000        7.113      836.438
       4.200        0.000        7.113      836.438
       4.230        0.000        7.113      836.438
       4.260        0.000        7.113      836.438
       4.290        0.000        7.113      836.438
       4.320        0.000        7.113      836.438
       4.350        0.000        7.113      836.438
       4.380        0.000        7.113      836.438
       4.410        0.000        7.113      836.438
       4.439        0.000        7.113      836.438
       4.469        0.000        7.113      836.438
       4.499        0.000        7.113      836.438
       4.529        0.000        7.113      836.438
       4.559        0.000        7.113      836.438
       4.589        0.000        7.113      836.438
       4.619        0.000        7.113      836.438
       4.648        0.000        7.113      836.438
       4.678        0.000        7.113      836.438
       4.708        0.000        7.113      836.438
       4.738        0.000        7.113      836.438
       4.768        0.000        7.113      836.438
       4.798        0.000        7.113      836.438
       4.828        0.000        7.113      836.438
       4.858        0.000        7.113      836.438
       4.888        0.000        7.113      836.438
       4.918        0.000        7.113      836.438
       4.948        0.000        7.113      836.438
       4.978        0.000        7.113      836.438
       5.008        0.000        7.113      836.438
       5.038        0.000        7.113      836.438
       5.068        0.000        7.113      836.438
       5.098        0.000        7.113      836.438
       5.129        0.000        7.113      836.438
       5.159        0.000        7.113      836.438
       5.189        0.000        7.113      836.438
       5.219        0.000        7.113      836.438
       5.249        0.000        7.113      836.438
       5.278        0.000        7.113      836.438
       5.308        0.000        7.113      836.438
       5.338        0.000        7.113      836.438
       5.368        0.000        7.113      836.438
       5.398        0.000        7.113      836.438
       5.428        0.000        7.113      836.438
       5.458        0.000        7.113      836.438
       5.488        0.000        7.113      836.438
       5.518        0.000        7.113      836.438
       5.548        0.000        7.113      836.438
       5.578        0.000        7.113      836.438
       5.608        0.000        7.113      836.438
       5.638        0.000        7.113      836.438
       5.668        0.000        7.113      836.438
       5.698        0.000        7.113      836.438
       5.727        0.000        7.113      836.438
       5.758        0.000        7.113      836.438
       5.787        0.000        7.113      836.438
       5.817        0.000        7.113      836.438
       5.847        0.000        7.113      836.438
       5.877        0.000        7.113      836.438
       5.907        0.000        7.113      836.438
       5.937        0.000        7.113      836.438
       5.966        0.000        7.113      836.438
       5.996        0.000        7.113      836.438
       6.026        0.000        7.113      836.438
       6.056        0.000        7.113      836.438
       6.087        0.000        7.113      836.438
       6.117        0.000        7.113      836.438
       6.147        0.000        7.113      836.438
       6.177        0.000        7.113      836.438
       6.207        0.000        7.113      836.438
       6.237        0.000        7.113      836.438
       6.267        0.000        7.113      836.438
       6.297        0.000        7.113      836.438
       6.327        0.000        7.113      836.438
       6.357        0.000        7.113      836.438
       6.386        0.000        7.113      836.438
       6.416        0.000        7.113      836.438
       6.446        0.000        7.113      836.438
       6.476        0.000        7.113      836.438
       6.506        0.000        7.113      836.438
       6.536        0.000        7.113      836.438
       6.566        0.000        7.113      836.438
       6.596        0.000        7.113      836.438
       6.626        0.000        7.113      836.438
       6.656        0.000        7.113      836.438
       6.686        0.000        7.113      836.438
       6.716        0.000        7.113      836.438
       6.746        0.000        7.113      836.438
       6.776        0.000        7.113      836.438
       6.806        0.000        7.113      836.438
       6.836        0.000        7.113      836.438
       6.866        0.000        7.113      836.438
       6.896        0.000        7.113      836.438
       6.926        0.000        7.113      836.438
       6.955        0.000        7.113      836.438
       6.985        0.000        7.113      836.438
       7.015        0.000        7.113      836.438
       7.045        0.000        7.113      836.438
       7.076        0.000        7.113      836.438
       7.106        0.000        7.113      836.438
       7.137        0.000        7.113      836.438
       7.167        0.000        7.113      836.438
       7.197        0.000        7.113      836.438
       7.226        0.000        7.113      836.438
       7.257        0.000        7.113      836.438
       7.287        0.000        7.113      836.438
       7.317        0.000        7.113      836.438
       7.347        0.000        7.113      836.438
       7.376        0.000        7.113      836.438
       7.406        0.000        7.113      836.438
       7.436        0.000        7.113      836.438
       7.466        0.000        7.113      836.438
       7.496        0.000        7.113      836.438
       7.525        0.000        7.113      836.438
       7.556        0.000        7.113      836.438
       7.586        0.000        7.113      836.438
       7.616        0.000        7.113      836.438
       7.646        0.000        7.113      836.438
       7.676        0.000        7.113      836.438
       7.706        0.000        7.113      836.438
       7.736        0.000        7.113      836.438
       7.766        0.000        7.113      836.438
       7.796        0.000        7.113      836.438
       7.826        0.000        7.113      836.438
       7.856        0.000        7.113      836.438
       7.886        0.000        7.113      836.438
       7.916        0.000        7.113      836.438
       7.946        0.000        7.113      836.438
       7.976        0.000        7.113      836.438
       8.006        0.000        7.113      836.438
       8.036        0.000        7.113      836.438
       8.068        0.000        7.113      836.438
       8.100        0.000        7.113      836.438
       8.130        0.000        7.113      836.438
       8.159        0.000        7.113      836.438
       8.189        0.000        7.113      836.438
       8.219        0.000        7.113      836.438
       8.249        0.000        7.113      836.438
       8.279        0.000        7.113      836.438
       8.309        0.000        7.113      836.438
       8.339        0.000        7.113      836.438
       8.369        0.000        7.113      836.438
       8.398        0.000        7.113      836.438
       8.428        0.000        7.113      836.438
       8.458        0.000        7.113      836.438
       8.488        0.000        7.113      836.438
       8.518        0.000        7.113      836.438
       8.548        0.000        7.113      836.438
       8.578        0.000        7.113      836.438
       8.608        0.000        7.113      836.438
       8.638        0.000        7.113      836.438
       8.668        0.000        7.113      836.438
       8.698        0.000        7.113      836.438
       8.728        0.000        7.113      836.438
       8.758        0.000        7.113      836.438
       8.788        0.000        7.113      836.438
       8.818        0.000        7.113      836.438
       8.847        0.000        7.113      836.438
       8.877        0.000        7.113      836.438
       8.907        0.000        7.113      836.438
       8.937        0.000        7.113      836.438
       8.967        0.000        7.113      836.438
       8.996        0.000        7.113      836.438
       9.026        0.000        7.113      836.438
       9.057        0.000        7.113      836.438
       9.087        0.000        7.113      836.438
       9.116        0.000        7.113      836.438
       9.146        0.000        7.113      836.438
       9.176        0.000        7.113      836.438
       9.206        0.000        7.113      836.438
       9.236        0.000        7.113      836.438
       9.266        0.000        7.113      836.438
       9.296        0.000        7.113      836.438
       9.325        0.000        7.113      836.438
       9.355        0.000        7.113      836.438
       9.385        0.000        7.113      836.438
       9.415        0.000        0.797        4.520
